es/caib/autenticacio/afirma/DSSCertificate.class
es/caib/autenticacio/afirma/AfirmaClientCertificateAuthenticator.class
es/caib/autenticacio/afirma/AfirmaClientCertificateAuthenticatorFactory.class
es/caib/autenticacio/afirma/DSSCertificateService.class
es/caib/autenticacio/afirma/Hola.class
