/home/toni/workspace/afirmaauth/src/main/java/es/caib/autenticacio/afirma/AfirmaClientCertificateAuthenticator.java
/home/toni/workspace/afirmaauth/src/main/java/es/caib/autenticacio/afirma/DSSCertificate.java
/home/toni/workspace/afirmaauth/src/main/java/es/caib/autenticacio/afirma/DSSCertificateService.java
/home/toni/workspace/afirmaauth/src/main/java/es/caib/autenticacio/afirma/AfirmaClientCertificateAuthenticatorFactory.java
/home/toni/workspace/afirmaauth/src/main/java/es/caib/autenticacio/afirma/Hola.java
